{
    "KPlugin": {
        "Authors": [
            {
                "Email": "mvourlakos@gmail.com",
                "Name": "Michail Vourlakos",
                "Name[az]": "Michail Vourlakos",
                "Name[ca@valencia]": "Michail Vourlakos",
                "Name[ca]": "Michail Vourlakos",
                "Name[cs]": "Michail Vourlakos",
                "Name[en_GB]": "Michail Vourlakos",
                "Name[es]": "Michail Vourlakos",
                "Name[fi]": "Michail Vourlakos",
                "Name[fr]": "Michail Vourlakos",
                "Name[it]": "Michail Vourlakos",
                "Name[ka]": "Michail Vourlakos",
                "Name[ko]": "Michail Vourlakos",
                "Name[nl]": "Michail Vourlakos",
                "Name[nn]": "Michail Vourlakos",
                "Name[pl]": "Michail Vourlakos",
                "Name[pt]": "Michail Vourlakos",
                "Name[pt_BR]": "Michail Vourlakos",
                "Name[sl]": "Michail Vourlakos",
                "Name[sv]": "Michail Vourlakos",
                "Name[tr]": "Michail Vourlakos",
                "Name[uk]": "Михаїл Ворлакос (Michail Vourlakos)",
                "Name[x-test]": "xxMichail Vourlakosxx",
                "Name[zh_CN]": "Michail Vourlakos"
            }
        ],
        "Category": "Latte Indicator",
        "Description": "Latte default indicator",
        "Description[az]": "Latte standart göstəricisi",
        "Description[ca@valencia]": "Indicador predeterminat de Latte",
        "Description[ca]": "Indicador predeterminat del Latte",
        "Description[cs]": "Výchozí ukazatel Latte",
        "Description[en_GB]": "Latte default indicator",
        "Description[es]": "Indicador por omisión de Latte",
        "Description[fi]": "Latte-oletusilmaisin",
        "Description[fr]": "Indicateur de Latte par défaut",
        "Description[it]": "Indicatore predefinito di Latte",
        "Description[ko]": "Latte 기본 표시기",
        "Description[nl]": "Standaard indicator van Latte",
        "Description[nn]": "Standard Latte-markør",
        "Description[pl]": "Domyślny wskaźnik Latte",
        "Description[pt]": "Indicador predefinido do Latte",
        "Description[pt_BR]": "Indicador padrão do Latte",
        "Description[sl]": "Privzeti kazalnik Latte",
        "Description[sv]": "Latte standardindikator",
        "Description[tr]": "Latte öntanımlı göstergesi",
        "Description[uk]": "Типовий індикатор Латте",
        "Description[x-test]": "xxLatte default indicatorxx",
        "Description[zh_CN]": "Latte 默认指示器",
        "EnabledByDefault": true,
        "Icon": "latte-dock",
        "Id": "org.kde.latte.default",
        "License": "GPL v2+",
        "Name": "Latte",
        "Name[ar]": "لاتيه",
        "Name[az]": "Latte",
        "Name[ca@valencia]": "Latte",
        "Name[ca]": "Latte",
        "Name[cs]": "Latte",
        "Name[da]": "Latte",
        "Name[de]": "Latte",
        "Name[el]": "Latte",
        "Name[en_GB]": "Latte",
        "Name[es]": "Latte",
        "Name[et]": "Latte",
        "Name[eu]": "Latte",
        "Name[fi]": "Latte",
        "Name[fr]": "Latte",
        "Name[gl]": "Latte",
        "Name[hsb]": "Latte",
        "Name[ia]": "Latte",
        "Name[id]": "Latte",
        "Name[it]": "Latte",
        "Name[ka]": "Latte",
        "Name[ko]": "Latte",
        "Name[lt]": "Latte",
        "Name[nl]": "Latte",
        "Name[nn]": "Latte",
        "Name[pl]": "Latte",
        "Name[pt]": "Latte",
        "Name[pt_BR]": "Latte",
        "Name[ru]": "Latte",
        "Name[sk]": "Latte",
        "Name[sl]": "Latte",
        "Name[sv]": "Latte",
        "Name[tr]": "Latte",
        "Name[uk]": "Латте",
        "Name[x-test]": "xxLattexx",
        "Name[zh_CN]": "Latte",
        "Name[zh_TW]": "Latte",
        "ServiceTypes": [
            "Latte/Indicator"
        ],
        "Version": "0.1"
    },
    "X-Latte-ConfigUi": "config/config.qml",
    "X-Latte-ConfigXml": "config/main.xml",
    "X-Latte-MainScript": "ui/main.qml",
    "X-Plasma-API": "declarativeappletscript"
}
